br/com/bobycachoeira/services/Pergunta3Service.class
br/com/bobycachoeira/services/OpiniaoService.class
br/com/bobycachoeira/services/EstadoService.class
br/com/bobycachoeira/model/Opiniao.class
br/com/bobycachoeira/services/ServicoService.class
br/com/bobycachoeira/dao/CidadeDAO.class
br/com/bobycachoeira/services/VeiculoService.class
br/com/bobycachoeira/model/Servico.class
br/com/bobycachoeira/controller/OpiniaoController.class
br/com/bobycachoeira/controller/EmailClienteController.class
br/com/bobycachoeira/services/GestorService.class
br/com/bobycachoeira/controller/EstadoController.class
br/com/bobycachoeira/dao/EstadoDAO.class
br/com/bobycachoeira/services/Pergunta1Service.class
br/com/bobycachoeira/controller/Pergunta3Controller.class
br/com/bobycachoeira/controller/CidadeController.class
br/com/bobycachoeira/model/Cliente.class
br/com/bobycachoeira/dao/OpiniaoDAO.class
br/com/bobycachoeira/model/Pergunta2DTO.class
br/com/bobycachoeira/controller/GestorController.class
br/com/bobycachoeira/model/Veiculo.class
br/com/bobycachoeira/model/Cidade.class
br/com/bobycachoeira/services/config/CorsResponseFilter.class
br/com/bobycachoeira/model/Pergunta1DTO.class
br/com/bobycachoeira/controller/EnviaEmail.class
br/com/bobycachoeira/controller/VeiculoController.class
br/com/bobycachoeira/model/Pergunta3DTO.class
br/com/bobycachoeira/controller/EnviaEmail$1.class
br/com/bobycachoeira/model/EmailCliente.class
br/com/bobycachoeira/controller/Pergunta2Controller.class
br/com/bobycachoeira/services/ClienteService.class
br/com/bobycachoeira/dao/VeiculoDAO.class
br/com/bobycachoeira/controller/TipoServicoController.class
br/com/bobycachoeira/controller/ClienteController.class
br/com/bobycachoeira/dao/TipoServicoDAO.class
br/com/bobycachoeira/controller/ServicoController.class
br/com/bobycachoeira/services/Pergunta2Service.class
br/com/bobycachoeira/dao/ClienteDAO.class
br/com/bobycachoeira/controller/Pergunta1Controller.class
br/com/bobycachoeira/dao/GestorDAO.class
br/com/bobycachoeira/dao/ServicoDAO.class
br/com/bobycachoeira/services/CidadeService.class
br/com/bobycachoeira/model/Estado.class
br/com/bobycachoeira/services/TipoServicoService.class
br/com/bobycachoeira/services/config/ApplicationConfig.class
br/com/bobycachoeira/model/Gestor.class
br/com/bobycachoeira/model/TipoServico.class
